{
  "data": {
    "type": "node--govcms_release",
    "attributes": {
      "title": "My custom title",
      "body": {
        "value": "Custom value",
        "format": "plain_text"
      }
    }
  }
}
